/* XPM */
const static char * english_xpm[] = {
"144 96 138 2",
"  	c None",
". 	c #5D5D5D",
"+ 	c #616161",
"@ 	c #000000",
"# 	c #1B1B1B",
"$ 	c #7F7F7F",
"% 	c #606060",
"& 	c #404040",
"* 	c #232323",
"= 	c #070707",
"- 	c #161616",
"; 	c #2C2C2C",
"> 	c #4C4C4C",
", 	c #686868",
"' 	c #8B8B8B",
") 	c #979797",
"! 	c #131313",
"~ 	c #272727",
"{ 	c #6F6F6F",
"] 	c #515151",
"^ 	c #484848",
"/ 	c #1C1C1C",
"( 	c #666666",
"_ 	c #0D0D0D",
": 	c #202020",
"< 	c #797979",
"[ 	c #9F9F9F",
"} 	c #3A3A3A",
"| 	c #999999",
"1 	c #383838",
"2 	c #4E4E4E",
"3 	c #868686",
"4 	c #919191",
"5 	c #242424",
"6 	c #353535",
"7 	c #9E9E9E",
"8 	c #969696",
"9 	c #212121",
"0 	c #0A0A0A",
"a 	c #343434",
"b 	c #181818",
"c 	c #6A6A6A",
"d 	c #949494",
"e 	c #8A8A8A",
"f 	c #5B5B5B",
"g 	c #555555",
"h 	c #414141",
"i 	c #9C9C9C",
"j 	c #8D8D8D",
"k 	c #373737",
"l 	c #3B3B3B",
"m 	c #959595",
"n 	c #444444",
"o 	c #989898",
"p 	c #282828",
"q 	c #5C5C5C",
"r 	c #9D9D9D",
"s 	c #757575",
"t 	c #898989",
"u 	c #717171",
"v 	c #525252",
"w 	c #2F2F2F",
"x 	c #6D6D6D",
"y 	c #545454",
"z 	c #A2A2A2",
"A 	c #585858",
"B 	c #777777",
"C 	c #5A5A5A",
"D 	c #5E5E5E",
"E 	c #636363",
"F 	c #696969",
"G 	c #4F4F4F",
"H 	c #474747",
"I 	c #292929",
"J 	c #8F8F8F",
"K 	c #0F0F0F",
"L 	c #8E8E8E",
"M 	c #787878",
"N 	c #727272",
"O 	c #878787",
"P 	c #191919",
"Q 	c #4A4A4A",
"R 	c #7C7C7C",
"S 	c #929292",
"T 	c #9A9A9A",
"U 	c #737373",
"V 	c #3D3D3D",
"W 	c #565656",
"X 	c #707070",
"Y 	c #2B2B2B",
"Z 	c #454545",
"` 	c #939393",
" .	c #3C3C3C",
"..	c #505050",
"+.	c #7B7B7B",
"@.	c #626262",
"#.	c #494949",
"$.	c #6B6B6B",
"%.	c #828282",
"&.	c #8C8C8C",
"*.	c #818181",
"=.	c #858585",
"-.	c #747474",
";.	c #A0A0A0",
">.	c #848484",
",.	c #1F1F1F",
"'.	c #7E7E7E",
").	c #2D2D2D",
"!.	c #1E1E1E",
"~.	c #3E3E3E",
"{.	c #676767",
"].	c #434343",
"^.	c #151515",
"/.	c #4D4D4D",
"(.	c #9B9B9B",
"_.	c #111111",
":.	c #2A2A2A",
"<.	c #888888",
"[.	c #4B4B4B",
"}.	c #838383",
"|.	c #5F5F5F",
"1.	c #808080",
"2.	c #7A7A7A",
"3.	c #323232",
"4.	c #313131",
"5.	c #333333",
"6.	c #7D7D7D",
"7.	c #424242",
"8.	c #595959",
"9.	c #303030",
"0.	c #535353",
"a.	c #3F3F3F",
"b.	c #252525",
"c.	c #363636",
"d.	c #393939",
"e.	c #6C6C6C",
"f.	c #6E6E6E",
"g.	c #767676",
"                                                                                                                                                                                                                                                                                                ",
"                                                                                                                                                                                                                                                                                                ",
"                                                                                                                                                                                                                                                                                                ",
"                                                                                                                                                                                                                                                                                                ",
"                                                                                                                                                                                                                                                                                                ",
"                                                                                                                                                                                                                                                                                                ",
"                                                                                                                                                                                                                                                                                                ",
"                                                                                                                                                                                                                                                                                                ",
"                                                                                                                                                                                                                                                                                                ",
"                                                                                                                                                                                                                                                                                                ",
"                                                                                                                                                                                                                                                                                                ",
"                                                                                                                                                                                                                                                                                                ",
"                                                                                                                                                                                                                                                                                                ",
"                                                                                                                                                                                                                                                                                                ",
"                                                                                                                                                                                                                                                                                                ",
"                                                                                                                                                                                                                                                                                                ",
"                                                                                                                                                                                                                                                                                                ",
"                                                                                                        . . . . . . . . . . . +                                                                                                               2.. . . . . . . . . . . m                         ",
"                                                                                                        @ @ @ @ @ @ @ @ @ @ @ #                                                                                                               f @ @ @ @ @ @ @ @ @ @ @ <.                        ",
"                                              $ % & * = @ - ; > , '                                     @ @ @ @ @ @ @ @ @ @ @ #                                                                                                               f @ @ @ @ @ @ @ @ @ @ @ <.                        ",
"                                        ) . ! @ @ @ @ @ @ @ @ @ @ @ ~ {                                 ] ^ / @ @ @ @ @ @ @ @ #                                                                                                               -.G 3.@ @ @ @ @ @ @ @ @ <.                        ",
"                                      ( _ @ @ @ @ @ @ @ @ @ @ @ @ @ @ @ : <                                 [ } @ @ @ @ @ @ @ #                                                                                                                     $.@ @ @ @ @ @ @ @ <.                        ",
"                                  | 1 @ @ @ @ @ @ @ @ @ @ @ @ @ @ @ @ @ @ @ 2                                 3 @ @ @ @ @ @ @ #                                                       i R + > } 4.5.~.v c >.                                          4.@ @ @ @ @ @ @ <.                        ",
"                                4 5 @ @ @ @ @ @ @ @ @ @ @ @ @ @ @ @ @ @ @ @ @ 6 7                               @ @ @ @ @ @ @ #                                                   6.7.@ @ @ @ @ @ @ @ @ @ @ ^.A L                                     W @ @ @ @ @ @ @ <.                        ",
"                              8 9 @ @ @ @ @ @ @ @ @ @ 0 : @ @ @ @ @ @ @ @ @ @ @ 1                               @ @ @ @ @ @ @ #                                               >.3.@ @ @ @ @ @ @ @ @ @ @ @ @ @ @ @ ..|                                 f @ @ @ @ @ @ @ <.                        ",
"                              a @ @ @ @ @ @ @ @ b c d       e f @ @ @ @ @ @ @ @ @ g                             @ @ @ @ @ @ @ #                                             8.@ @ @ @ @ @ @ @ @ @ @ @ @ @ @ @ @ @ @ - <                               f @ @ @ @ @ @ @ <.                        ",
"                            % @ @ @ @ @ @ @ @ h i               j ~ @ @ @ @ @ @ @ @ k l l l l l l l l l l l l 1 @ @ @ @ @ @ @ #                                         r l @ @ @ @ @ @ @ @ @ @ @ @ @ @ @ @ @ @ @ @ @ @ %                             f @ @ @ @ @ @ @ <.                        ",
"                          m = @ @ @ @ @ @ @ n                     o p @ @ @ @ @ @ @ @ @ @ @ @ @ @ @ @ @ @ @ @ @ @ @ @ @ @ @ @ #                                       r 9.@ @ @ @ @ @ @ @ @ @ @ / _.@ @ @ @ @ @ @ @ @ @ @ W                           f @ @ @ @ @ @ @ <.                        ",
"                          q @ @ @ @ @ @ @ 5 r                       e = @ @ @ @ @ @ @ @ @ @ @ @ @ @ @ @ @ @ @ @ @ @ @ @ @ @ @ #                                       1 @ @ @ @ @ @ @ @ @ y =.      [ +.n @ @ @ @ @ @ @ @ @ +                         f @ @ @ @ @ @ @ <.                        ",
"                          b @ @ @ @ @ @ @ s                           f @ @ @ @ @ @ @ @ @ @ @ @ @ @ @ @ @ @ @ @ @ @ @ @ @ @ @ #                                     0.@ @ @ @ @ @ @ @ ; <.                B - @ @ @ @ @ @ @ @ R                       f @ @ @ @ @ @ @ <.                        ",
"                        t @ @ @ @ @ @ @ /                             m @ @ @ @ @ @ @ @ @ @ @ @ @ @ @ @ @ @ @ @ @ @ @ @ @ @ @ #                                   $ @ @ @ @ @ @ @ @ w (.                    O K @ @ @ @ @ @ @ ,.7                     f @ @ @ @ @ @ @ <.                        ",
"                        u @ @ @ @ @ @ @ v                               w @ @ @ @ @ @ @ @ @ @ @ @ @ @ @ @ @ @ @ @ @ @ @ @ @ @ #                                   I @ @ @ @ @ @ @ / o                         2.@ @ @ @ @ @ @ @ D                     f @ @ @ @ @ @ @ <.                        ",
"                        % @ @ @ @ @ @ @ x                               y @ @ @ @ @ @ @ s                     z @ @ @ @ @ @ @ #                                 B @ @ @ @ @ @ @ @ +.                            [.@ @ @ @ @ @ @ _ r                   f @ @ @ @ @ @ @ <.                        ",
"                        A @ @ @ @ @ @ @ B                               % @ @ @ @ @ @ @ {                       @ @ @ @ @ @ @ #                                  .@ @ @ @ @ @ @ 7.                              8 @ @ @ @ @ @ @ @ {                   f @ @ @ @ @ @ @ <.                        ",
"                        C @ @ @ @ @ @ @ s                               D @ @ @ @ @ @ @ {                       @ @ @ @ @ @ @ #                               o @ @ @ @ @ @ @ @ *.                                /.@ @ @ @ @ @ @ a.                  f @ @ @ @ @ @ @ <.                        ",
"                        E @ @ @ @ @ @ @ F                               G @ @ @ @ @ @ @ <                       @ @ @ @ @ @ @ #                               2.@ @ @ @ @ @ @ #                                   $ @ @ @ @ @ @ @ @                   f @ @ @ @ @ @ @ <.                        ",
"                        s @ @ @ @ @ @ @ H                               9 @ @ @ @ @ @ @ : I I I I I I I I I I ~ @ @ @ @ @ @ @ #                               @.@ @ @ @ @ @ @ G                                   r @ @ @ @ @ @ @ @ u >.>.>.>.>.>.>.>.#.@ @ @ @ @ @ @ <.                        ",
"                        J @ @ @ @ @ @ @ K [                           t @ @ @ @ @ @ @ @ @ @ @ @ @ @ @ @ @ @ @ @ @ @ @ @ @ @ @ #                               G @ @ @ @ @ @ @ c                                     b.@ @ @ @ @ @ @ @ @ @ @ @ @ @ @ @ @ @ @ @ @ @ @ @ <.                        ",
"                          ~ @ @ @ @ @ @ @ (                           ^ @ @ @ @ @ @ @ @ @ @ @ @ @ @ @ @ @ @ @ @ @ @ @ @ @ @ @ #                               n @ @ @ @ @ @ @ -.                                    1 @ @ @ @ @ @ @ @ @ @ @ @ @ @ @ @ @ @ @ @ @ @ @ @ <.                        ",
"                          , @ @ @ @ @ @ @ _ L                       M @ @ @ @ @ @ @ @ @ @ @ @ @ @ @ @ @ @ @ @ @ @ @ @ @ @ @ @ #                               & @ @ @ @ @ @ @ M                                     7.@ @ @ @ @ @ @ @ @ @ @ @ @ @ @ @ @ @ @ @ @ @ @ @ <.                        ",
"                          [ - @ @ @ @ @ @ @ ; o                   3 ! @ @ @ @ @ @ @ @ @ @ @ @ @ @ @ @ @ @ @ @ @ @ @ @ @ @ @ @ #                               H @ @ @ @ @ @ @ X                                     c.@ @ @ @ @ @ @ @ @ @ @ @ @ @ @ @ @ @ @ @ @ @ @ @ <.                        ",
"                            N @ @ @ @ @ @ @ @ p O               s K @ @ @ @ @ @ @ @ # # # # # # # # # # # # # P @ @ @ @ @ @ @ #                               W @ @ @ @ @ @ @ E                                     ,.@ @ @ @ @ @ @ @ @ @ @ @ @ @ @ @ @ @ @ @ @ @ @ @ <.                        ",
"                              Q @ @ @ @ @ @ @ @ @ > R S T L U } @ @ @ @ @ @ @ @ @ F                             @ @ @ @ @ @ @ #                               $.@ @ @ @ @ @ @ a.                                  ) @ @ @ @ @ @ @ @ /.0.0.0.0.0.0.0.0.).@ @ @ @ @ @ @ <.                        ",
"                              z 1 @ @ @ @ @ @ @ @ @ @ @ @ @ @ @ @ @ @ @ @ @ @ @ v                               @ @ @ @ @ @ @ #                               =.@ @ @ @ @ @ @ = z                                 M @ @ @ @ @ @ @ b.                  f @ @ @ @ @ @ @ <.                        ",
"                                [ V @ @ @ @ @ @ @ @ @ @ @ @ @ @ @ @ @ @ @ @ @ g                                 @ @ @ @ @ @ @ #                                 ! @ @ @ @ @ @ @ u                                 ~.@ @ @ @ @ @ @ f                   f @ @ @ @ @ @ @ <.                        ",
"                                    W @ @ @ @ @ @ @ @ @ @ @ @ @ @ @ @ @ @ 0 X                                   @ @ @ @ @ @ @ #                                 W @ @ @ @ @ @ @ ).                              e @ @ @ @ @ @ @ @ }.                  f @ @ @ @ @ @ @ <.                        ",
"                                      $ Y @ @ @ @ @ @ @ @ @ @ @ @ @ @ @ Z `                                     @ @ @ @ @ @ @ #                                 j @ @ @ @ @ @ @ @ ,                             c.@ @ @ @ @ @ @ d.                    f @ @ @ @ @ @ @ <.                        ",
"                                          M  .@ @ @ @ @ @ @ @ @ @ K ..t                                         @ @ @ @ @ @ @ #                                   2 @ @ @ @ @ @ @ 0 t                         @.@ @ @ @ @ @ @ @ 1.                    f @ @ @ @ @ @ @ <.                        ",
"                                              o +.@.G n & #.g $.%.                                              @ @ @ @ @ @ @ #                                   | - @ @ @ @ @ @ @ # J                     e.@ @ @ @ @ @ @ @ [.                      f @ @ @ @ @ @ @ <.                        ",
"                                                                                                                @ @ @ @ @ @ @ #                                     +.@ @ @ @ @ @ @ @ ! U               [ v @ @ @ @ @ @ @ @ p [                       f @ @ @ @ @ @ @ <.                        ",
"                                                                                  [ &.*.R $ =.d                 @ @ @ @ @ @ @ #                                       {.@ @ @ @ @ @ @ @ @ ; F %.L e R g ! @ @ @ @ @ @ @ @ - '                         f @ @ @ @ @ @ @ <.                        ",
"                                                                            e % w @ @ @ @ @ @ @ ! H -.;.        @ @ @ @ @ @ @ #                                         E @ @ @ @ @ @ @ @ @ @ @ @ @ @ @ @ @ @ @ @ @ @ @ # '                           f @ @ @ @ @ @ @ <.                        ",
"                                                                        >.l @ @ @ @ @ @ @ @ @ @ @ @ @ ! + ;.                                                              u = @ @ @ @ @ @ @ @ @ @ @ @ @ @ @ @ @ @ @ @ ; J                             f @ @ @ @ @ @ @ <.                        ",
"                                                                    ;.v @ @ @ @ @ @ @ @ @ @ @ @ @ @ @ @ @ ,.'.                                                              e 9.@ @ @ @ @ @ @ @ @ @ @ @ @ @ @ @ @ @ 8.                                f @ @ @ @ @ @ @ <.                        ",
"                                                                  S ).@ @ @ @ @ @ @ @ @ @ @ @ @ @ @ @ @ @ @ @ E                                                                 f.* @ @ @ @ @ @ @ @ @ @ @ @ @ @ H 3                                   f @ @ @ @ @ @ @ <.                        ",
"                                                                J !.@ @ @ @ @ @ @ @ @ @ @ @ @ @ @ @ @ @ @ @ @ @ A                                                                   R 2 b @ @ @ @ @ @ @ @ c.+ J                                       f @ @ @ @ @ @ @ <.                        ",
"                                                              | * @ @ @ @ @ @ @ @ @ p g E . H 0 @ @ @ @ @ @ @ @ @ @.                                                                      S *.g.N g.$ <.7                                             f @ @ @ @ @ @ @ <.                        ",
"                                                              ~.@ @ @ @ @ @ @ @ k =.          z {.K @ @ @ @ @ @ @ @ $                                                                                                                                 f @ @ @ @ @ @ @ <.                        ",
"                                                            N @ @ @ @ @ @ @ @ ..                  e ,.@ @ @ @ @ @ @ 5                                                                                                                                 f @ @ @ @ @ @ @ <.                        ",
"                                                            9 @ @ @ @ @ @ @ ].                      e 0 @ @ @ @ @ @ @ x                                                                                                                               f @ @ @ @ @ @ @ <.                        ",
"                                                          +.@ @ @ @ @ @ @ K T                         , @ @ @ @ @ @ @ Y                                                                                                                               f @ @ @ @ @ @ @ <.                        ",
"                                                          v @ @ @ @ @ @ @ q                           z ^.@ @ @ @ @ @ @ J                                                                                                                             f @ @ @ @ @ @ @ <.                        ",
"                                                          5 @ @ @ @ @ @ @ >.                            /.@ @ @ @ @ @ @ -.                                                                                                                            f @ @ @ @ @ @ @ <.                        ",
"                                                          @ @ @ @ @ @ @ @ [                             x @ @ @ @ @ @ @ +                                                                                                                             f @ @ @ @ @ @ @ <.                        ",
"                                                        (.@ @ @ @ @ @ @ @                               M @ @ @ @ @ @ @ A                                                                                                                             f @ @ @ @ @ @ @ <.                        ",
"                                                        (.@ @ @ @ @ @ @ @                               M @ @ @ @ @ @ @ A                                                                                                                             f @ @ @ @ @ @ @ <.                        ",
"                                                          @ @ @ @ @ @ @ @ ;.                            x @ @ @ @ @ @ @ +                                                                                                                             f @ @ @ @ @ @ @ <.                        ",
"                                                          5 @ @ @ @ @ @ @ =.                            2 @ @ @ @ @ @ @ -.                                                                                                                            f @ @ @ @ @ @ @ <.                        ",
"                                                          v @ @ @ @ @ @ @ .                           z - @ @ @ @ @ @ @ J                                                                                                                             f @ @ @ @ @ @ @ <.                        ",
"                                                          +.@ @ @ @ @ @ @ _.i                         c @ @ @ @ @ @ @ :.                                                                                                                              f @ @ @ @ @ @ @ <.                        ",
"                                                            : @ @ @ @ @ @ @ H                       &._ @ @ @ @ @ @ @ x                                                                                                                               f @ @ @ @ @ @ @ <.                        ",
"                                                            u @ @ @ @ @ @ @ @ y                   j 5 @ @ @ @ @ @ @ *                                                                                                                                 f @ @ @ @ @ @ @ <.                        ",
"                                                               .@ @ @ @ @ @ @ @ l <.            c ! @ @ @ @ @ @ @ @ '.                                                                                                                                f @ @ @ @ @ @ @ <.                        ",
"                                                              o : @ @ @ @ @ @ @ @ @ ).A ( + [.K @ @ @ @ @ @ @ @ @ %                                                                                                                                   f @ @ @ @ @ @ @ <.                        ",
"                                                                j / @ @ @ @ @ @ @ @ @ @ @ @ @ @ @ @ @ @ @ @ @ @ g                                                                                                                                     f @ @ @ @ @ @ @ <.                        ",
"                                                                  4 Y @ @ @ @ @ @ @ @ @ @ @ @ @ @ @ @ @ @ @ @ %                                                                                                                                       f @ @ @ @ @ @ @ <.                        ",
"                                                                    [ G @ @ @ @ @ @ @ @ @ @ @ @ @ @ @ @ @ !.R                                                                                                                                         f @ @ @ @ @ @ @ <.                        ",
"                                                                        }.1 @ @ @ @ @ @ @ @ @ @ @ @ @ _.|.[                                                                                                                                           f @ @ @ @ @ @ @ <.                        ",
"                                                                            e D ; @ @ @ @ @ @ @ _.Z U ;.                                                                                                                                              B A A A A A A A `                         ",
"                                                                                  7 ' 1.R '.>.`                                                                                                                                                                                                 ",
"                                                                                                                                                                                                                                                                                                ",
"                                                                                                                                                                                                                                                                                                ",
"                                                                                                                                                                                                                                                                                                ",
"                                                                                                                                                                                                                                                                                                ",
"                                                                                                                                                                                                                                                                                                ",
"                                                                                                                                                                                                                                                                                                ",
"                                                                                                                                                                                                                                                                                                ",
"                                                                                                                                                                                                                                                                                                ",
"                                                                                                                                                                                                                                                                                                ",
"                                                                                                                                                                                                                                                                                                ",
"                                                                                                                                                                                                                                                                                                ",
"                                                                                                                                                                                                                                                                                                ",
"                                                                                                                                                                                                                                                                                                ",
"                                                                                                                                                                                                                                                                                                ",
"                                                                                                                                                                                                                                                                                                ",
"                                                                                                                                                                                                                                                                                                "};
